{
    "name": "qmi-cloudera",
    "description": "Ubuntu server with Cloudera/Quickstart installed",
    "category": "Common",
    "type": "community",
    "custom": true,
    "plugin-dependencies": ["vagrant-disksize"],
    "notes": "Note: Requires vagrant plugin vagrant-disksize. Once provisioned follow the instructions on the Information Page to start Cloudera",
    "version": 1.5,
    "author": "Clint Carr",
    "email": "cac@qlik.com",
    "isNew": false,
    "disabled": false,
    "resources": [{
            "name": "Cloudera Hue",
            "url": "http://qmi-cloudera:8888"
        },
        {
            "name": "Cloudera-Manager",
            "url": "http://qmi-cloudera:7180"
        },
        {
            "name": "Cloudera Getting Started Guide",
            "url": "https://www.cloudera.com/documentation/enterprise/5-10-x/topics/quickstart.html"
        },
        {
            "name": "User name / password",
            "value": "cloudera / cloudera"
        }
    ],
    "config": {
        "allowUpdates": true,
        "servers": [{
            "name": "qmi-cloudera",
            "ip": "192.168.56.30",
            "box": "bento/ubuntu-18.04",
     		"memory": 12096,
     		"cpus": 4
        }]
    }
}