{
    "name": "qmi-qs-ticket",
    "description": "Qlik Sense with Ticket Authentication (Office 365 and Google)",
    "category": "Qlik Sense",
    "type": "community",
    "product": "QSEfW",
    "custom": true,
    "plugin-dependencies": ["vagrant-reload"],
    "notes": "Creates virtual proxies and runs nodejs authentication modules for Google and Office 365",
    "version": 1.1,
    "author": "Manuel Romero",
    "email": "manuel.romero@qlik.com",
    "disabled": false,
    "resources": [{
            "name": "QMC",
            "url": "https://qmi-qs-ticket/qmc"
        }, {
            "name": "Auth with Google",
            "url": "https://qmi-qs-ticket/google/hub"
        },
        {
            "name": "Auth with Office 365",
            "url": "https://qmi-qs-ticket/o365/hub"
        }
    ],
    "config": {
    	"allowUpdates": true,
        "servers": [{
            "name": "qmi-qs-ticket",
            "ip": "192.168.56.25",
            "box": "qlik/win2k16",
            "boxMetaUrl": "https://d3rocc7b1ki6aj.cloudfront.net/win2k16/metadata.json",
            "memory": 4096,
            "cpus": 2,
            "sense": {
                "central": true,
                "proxy": true,
                "engine": true,
                "persistence": "shared",
                "license": "token"
            }
        }]
    }
}